<?xml version="1.0" encoding="UTF-8"?>
<svg width="30px" height="25px" viewBox="0 0 30 25" version="1.1" xmlns="http://www.w3.org/2000/svg" xmlns:xlink="http://www.w3.org/1999/xlink">
    <!-- Generator: Sketch 41.2 (35397) - http://www.bohemiancoding.com/sketch -->
    <title>exit</title>
    <desc>Created with Sketch.</desc>
    <defs></defs>
    <g id="Symbols" stroke="none" stroke-width="1" fill="none" fill-rule="evenodd">
        <g id="Video" transform="translate(-245.000000, -438.000000)" fill="#BDC7CF">
            <path d="M274.622391,449.103261 L269.51163,443.942283 C269.004565,443.430326 268.178913,443.426413 267.666957,443.933478 C267.155326,444.440217 267.151087,445.266196 267.658152,445.777826 L270.575,448.72337 L254.748043,448.76087 C254.027717,448.762826 253.445,449.347826 253.446957,450.068152 C253.448587,450.787826 254.031957,451.369565 254.751304,451.369565 L254.754239,451.369565 L270.56163,451.332391 L267.658152,454.264565 C267.151087,454.776196 267.155326,455.602174 267.666957,456.108913 C267.921304,456.360978 268.253261,456.486522 268.584891,456.486522 C268.920761,456.486522 269.25663,456.357717 269.51163,456.100109 L274.622391,450.938804 C275.12587,450.430435 275.12587,449.61163 274.622391,449.103261 M264.565217,454.860978 L264.565217,460.826087 C264.565217,461.546413 264.041196,462.130435 263.32087,462.130435 L246.304348,462.130435 C245.584022,462.130435 245,461.546413 245,460.826087 L245,439.304348 C245,438.584022 245.584022,438 246.304348,438 L263.32087,438 C264.041196,438 264.565217,438.584022 264.565217,439.304348 L264.565217,445.269457 C264.565217,445.989783 263.981196,446.573804 263.26087,446.573804 C262.540543,446.573804 261.956522,445.989783 261.956522,445.269457 L261.956522,440.608696 L247.608696,440.608696 L247.608696,459.521739 L261.956522,459.521739 L261.956522,454.860978 C261.956522,454.140652 262.540543,453.55663 263.26087,453.55663 C263.981196,453.55663 264.565217,454.140652 264.565217,454.860978" id="exit"></path>
        </g>
    </g>
</svg>