<?xml version="1.0" encoding="UTF-8" standalone="no"?>
<!-- Created with Inkscape (http://www.inkscape.org/) -->

<svg
   xmlns:dc="http://purl.org/dc/elements/1.1/"
   xmlns:cc="http://creativecommons.org/ns#"
   xmlns:rdf="http://www.w3.org/1999/02/22-rdf-syntax-ns#"
   xmlns:svg="http://www.w3.org/2000/svg"
   xmlns="http://www.w3.org/2000/svg"
   xmlns:sodipodi="http://sodipodi.sourceforge.net/DTD/sodipodi-0.dtd"
   xmlns:inkscape="http://www.inkscape.org/namespaces/inkscape"
   version="1.1"
   id="svg834"
   width="17.071325"
   height="20"
   viewBox="0 0 17.071325 20"
   sodipodi:docname="trash.svg"
   inkscape:version="0.92.2 (5c3e80d, 2017-08-06)">
  <metadata
     id="metadata840">
    <rdf:RDF>
      <cc:Work
         rdf:about="">
        <dc:format>image/svg+xml</dc:format>
        <dc:type
           rdf:resource="http://purl.org/dc/dcmitype/StillImage" />
        <dc:title></dc:title>
      </cc:Work>
    </rdf:RDF>
  </metadata>
  <defs
     id="defs838" />
  <sodipodi:namedview
     pagecolor="#ffffff"
     bordercolor="#666666"
     borderopacity="1"
     objecttolerance="10"
     gridtolerance="10"
     guidetolerance="10"
     inkscape:pageopacity="0"
     inkscape:pageshadow="2"
     inkscape:window-width="1332"
     inkscape:window-height="489"
     id="namedview836"
     showgrid="false"
     inkscape:zoom="4.72"
     inkscape:cx="79.830897"
     inkscape:cy="24.786861"
     inkscape:window-x="281"
     inkscape:window-y="227"
     inkscape:window-maximized="0"
     inkscape:current-layer="svg834" />
  <g
     id="g1408"
     transform="matrix(0.39967854,0,0,0.39967854,-1.4563004,0.01658279)">
    <path
       style="fill:#fee7db;stroke-width:0.40983605"
       d="M 10.368258,49.196918 C 7.6216287,47.522201 7.5953189,47.354246 7.4606434,30.635246 L 7.3393197,15.57377 H 5.5139221 3.6885246 v -2.04918 c 0,-1.912568 0.068306,-2.04918 1.0245902,-2.04918 0.8945221,0 1.0245901,-0.179145 1.0245901,-1.411187 0,-2.1687591 1.0748836,-2.6871738 5.5715971,-2.6871738 h 3.749872 L 15.311427,5.8401639 C 15.649977,3.7775055 16.916343,1.8082284 18.541336,0.8174582 19.686086,0.11949568 20.609464,0.00306398 25,0.00306398 c 4.390536,0 5.313914,0.1164317 6.458664,0.81439422 1.624993,0.9907702 2.891359,2.9600473 3.229909,5.0227057 l 0.252253,1.5368853 h 3.749872 c 4.496712,0 5.571597,0.5184147 5.571597,2.6871738 0,1.232042 0.13007,1.411187 1.02459,1.411187 0.956283,0 1.02459,0.136612 1.02459,2.04918 v 2.04918 H 44.486078 42.66068 L 42.539357,30.635246 C 42.40468,47.354246 42.378373,47.522201 39.631742,49.196918 38.401473,49.947057 37.48926,49.996934 25,49.996934 c -12.48926,0 -13.401473,-0.04988 -14.631742,-0.800016 z m 27.223989,-3.626807 c 0.37762,-0.239906 0.530013,-3.997439 0.614754,-15.157829 L 38.319672,15.57343 H 25 11.680328 l 0.112671,14.838852 c 0.08474,11.16039 0.237134,14.917923 0.614754,15.157829 0.276146,0.175438 5.942657,0.318975 12.592247,0.318975 6.64959,0 12.316101,-0.143537 12.592247,-0.318975 z M 15.349227,42.10484 c -0.10935,-0.284963 -0.149668,-5.587216 -0.0896,-11.782788 l 0.109221,-11.264675 1.946722,-0.124914 1.946721,-0.124915 V 30.71525 42.622951 H 17.40517 c -1.11875,0 -1.936173,-0.205996 -2.055943,-0.518111 z M 23.046994,30.840164 23.155738,19.057377 H 25 26.844262 l 0.108744,11.782787 0.108744,11.782787 H 25 22.93825 Z m 7.690711,-0.102459 V 18.807548 l 1.946721,0.124915 1.946722,0.124914 v 11.680328 11.680328 l -1.946722,0.124914 -1.946721,0.124914 z M 30.42592,6.3406529 C 30.093277,4.6005471 28.878082,4.0983607 25,4.0983607 c -3.878082,0 -5.093277,0.5021864 -5.42592,2.2422922 L 19.375961,7.3770492 H 25 30.624039 Z"
       id="path1422"
       inkscape:connector-curvature="0" />
    <path
       style="fill:#feccb7;stroke-width:0.40983605"
       d="M 10.76075,49.325959 C 10.029572,48.965504 9.0613344,48.07191 8.6091107,47.340197 7.824682,46.070963 7.7868852,45.31025 7.7868852,30.791789 V 15.57377 H 5.7377049 3.6885246 v -2.04918 c 0,-1.912568 0.068306,-2.04918 1.0245902,-2.04918 0.8859082,0 1.0245901,-0.18306 1.0245901,-1.352459 0,-2.0998563 0.5208349,-2.3360658 5.1509551,-2.3360658 h 4.167349 l 0.223813,-1.6686504 c 0.295347,-2.2019762 1.924458,-4.5966597 3.700461,-5.43942845 2.023884,-0.96039556 10.01555,-0.96039556 12.039434,0 1.776003,0.84276875 3.405114,3.23745225 3.700461,5.43942845 l 0.223813,1.6686504 h 4.167349 c 4.630119,0 5.150955,0.2362095 5.150955,2.3360658 0,1.169399 0.13868,1.352459 1.02459,1.352459 0.956283,0 1.02459,0.136612 1.02459,2.04918 v 2.04918 h -2.04918 -2.04918 v 15.218019 c 0,14.542375 -0.03668,15.277367 -0.826131,16.554727 -1.581806,2.559414 -2.173442,2.654521 -16.448922,2.644152 -10.933807,-0.008 -13.045955,-0.106971 -14.177312,-0.664709 z M 38.100334,45.10891 C 38.369648,44.605693 38.52459,39.067664 38.52459,29.944976 V 15.57377 H 25 11.47541 v 14.371206 c 0,9.122688 0.154942,14.660717 0.424256,15.163934 0.40541,0.757516 0.987316,0.792729 13.100334,0.792729 12.113018,0 12.694924,-0.03521 13.100334,-0.792729 z m -22.9364,-14.371205 v -11.47541 h 2.049181 2.04918 v 11.47541 11.47541 h -2.04918 -2.049181 z m 7.786886,0 V 19.262295 H 25 27.04918 v 11.47541 11.47541 H 25 22.95082 Z m 7.786885,0 v -11.47541 h 2.04918 2.049181 v 11.47541 11.47541 h -2.049181 -2.04918 z m 0,-23.7152218 c 0,-0.4204213 -0.382238,-1.2503393 -0.849418,-1.8442623 C 29.073309,4.1421443 28.87511,4.0983607 25,4.0983607 c -3.87511,0 -4.073309,0.043784 -4.888287,1.0798602 -0.46718,0.593923 -0.849418,1.423841 -0.849418,1.8442623 0,0.7095787 0.411512,0.764402 5.737705,0.764402 5.326193,0 5.737705,-0.054823 5.737705,-0.764402 z"
       id="path1420"
       inkscape:connector-curvature="0" />
    <path
       style="fill:#feb798;stroke-width:0.40983605"
       d="M 11.270492,49.615033 C 10.819672,49.422787 9.897541,48.681135 9.2213115,47.966918 L 7.9918033,46.668344 7.8753119,31.142939 7.7588209,15.617535 5.8261316,15.493194 3.8934426,15.368852 3.7685282,13.422131 C 3.650012,11.575123 3.6972445,11.47541 4.6906594,11.47541 c 0.9113123,0 1.0470455,-0.175326 1.0470455,-1.352459 0,-2.0999785 0.5207254,-2.3360658 5.1525381,-2.3360658 h 4.168931 L 15.336117,6.045082 C 15.689619,3.8217677 16.998996,1.9106208 18.90122,0.84151098 20.164355,0.13159 21.118042,0 25,0 c 3.881958,0 4.835645,0.13159 6.09878,0.84151098 1.902224,1.06910982 3.211601,2.98025672 3.565103,5.20357102 l 0.276943,1.7418032 h 4.168931 c 4.631813,0 5.152538,0.2360873 5.152538,2.3360658 0,1.177133 0.135734,1.352459 1.047045,1.352459 0.993414,0 1.040648,0.09971 0.922131,1.946721 l -0.124914,1.946721 -1.932688,0.124342 -1.932689,0.124341 -0.116491,15.545465 -0.116492,15.545467 -1.543213,1.543308 -1.543212,1.543307 -13.415804,0.08475 c -7.378692,0.04661 -13.784657,-0.07255 -14.235476,-0.264795 z m 26.434426,-4.12323 C 38.493805,44.702918 38.52459,44.125684 38.52459,30.122951 V 15.57377 H 25 11.47541 v 14.549181 c 0,14.002733 0.03079,14.579967 0.819672,15.368852 0.781986,0.781988 1.36612,0.819672 12.704918,0.819672 11.338798,0 11.922932,-0.03766 12.704918,-0.819672 z M 15.163934,30.737705 v -11.47541 h 2.049181 2.04918 v 11.47541 11.47541 h -2.04918 -2.049181 z m 7.786886,0 V 19.262295 H 25 27.04918 v 11.47541 11.47541 H 25 22.95082 Z m 7.786885,0 v -11.47541 h 2.04918 2.049181 v 11.47541 11.47541 h -2.049181 -2.04918 z m 0,-23.5925169 c 0,-0.7888606 -0.783648,-2.3260852 -1.393321,-2.7331746 C 29.096366,4.2464078 27.141393,4.1109123 25,4.1109123 c -4.156661,0 -4.534965,0.1075602 -5.266515,1.4973906 C 18.627007,7.7104389 18.811808,7.7868852 25,7.7868852 c 4.93403,0 5.737705,-0.089882 5.737705,-0.6416971 z"
       id="path1418"
       inkscape:connector-curvature="0" />
    <path
       style="fill:#fe996c;stroke-width:0.40983605"
       d="M 11.094707,49.282152 C 10.321796,48.888033 9.3074516,48.045156 8.8406086,47.40909 8.02695,46.300492 7.983318,45.613201 7.7868852,30.81073 L 7.5819672,15.368852 5.6128234,15.243022 3.6436792,15.117192 3.7685609,13.39876 c 0.1034919,-1.424098 0.282825,-1.740864 1.0470129,-1.849396 0.6750303,-0.09587 0.9221311,-0.405101 0.9221311,-1.153992 0,-2.3700654 0.4691242,-2.6084868 5.1325271,-2.6084868 h 4.284016 L 15.419979,6.1250955 C 15.727197,4.2038582 16.92141,2.2876019 18.575135,1.0622736 19.608177,0.29684118 20.297032,0.20491803 25,0.20491803 c 4.702968,0 5.391823,0.0919231 6.424865,0.85735557 1.653725,1.2253283 2.847938,3.1415846 3.155156,5.0628219 l 0.265731,1.6617897 h 4.284016 c 4.663404,0 5.132527,0.2384214 5.132527,2.6084868 0,0.748891 0.247103,1.058123 0.922131,1.153992 0.764189,0.108532 0.943521,0.425298 1.047013,1.849396 l 0.124881,1.718432 -1.969144,0.12583 -1.969143,0.12583 -0.204918,15.441878 C 42.01668,45.613201 41.973049,46.300492 41.159393,47.40909 39.32628,49.906676 38.751884,49.998725 25,49.998725 c -11.09148,0 -12.658351,-0.08075 -13.905293,-0.716573 z m 26.51902,-3.608668 0.910863,-0.637996 V 30.156138 15.276788 H 25 11.47541 v 14.87935 14.87935 l 0.910863,0.637996 c 0.772776,0.54127 2.685028,0.637991 12.613727,0.637991 9.928699,0 11.840951,-0.09672 12.613727,-0.637991 z M 15.57377,30.737705 v -11.47541 h 1.844263 1.844262 v 11.47541 11.47541 H 17.418033 15.57377 Z m 7.37705,0 V 19.262295 H 25 27.04918 v 11.47541 11.47541 H 25 22.95082 Z m 7.786885,0 v -11.47541 h 1.844262 1.844263 v 11.47541 11.47541 h -1.844263 -1.844262 z m 0,-23.7974349 c 0,-2.2259455 -1.810024,-3.2517455 -5.737705,-3.2517455 -3.927681,0 -5.737705,1.0258 -5.737705,3.2517455 0,0.8152811 0.212357,0.8466151 5.737705,0.8466151 5.525348,0 5.737705,-0.031332 5.737705,-0.8466151 z"
       id="path1416"
       inkscape:connector-curvature="0" />
    <path
       style="fill:#fe7b40;stroke-width:0.40983605"
       d="M 11.73875,49.589488 C 11.094653,49.390484 10.193175,48.894266 9.7354648,48.486783 7.8787029,46.833766 7.7868852,45.969078 7.7868852,30.136114 V 15.163934 H 5.942623 4.0983607 v -1.844262 c 0,-1.571038 0.1214327,-1.844262 0.8196721,-1.844262 0.6330799,0 0.8196721,-0.273224 0.8196721,-1.200234 0,-2.1240125 0.8064664,-2.4882908 5.5087611,-2.4882908 H 15.46717 L 15.680322,5.8958049 C 15.909084,3.86624 16.79303,2.3993536 18.600459,1.0499134 19.606216,0.29900673 20.318794,0.20491803 25,0.20491803 c 4.681206,0 5.393784,0.0940887 6.399541,0.84499537 1.807429,1.3494402 2.691375,2.8163266 2.920137,4.8458915 l 0.213152,1.8910803 h 4.220704 c 4.702294,0 5.508761,0.3642783 5.508761,2.4882908 0,0.92701 0.18659,1.200234 0.819672,1.200234 0.698238,0 0.819672,0.273224 0.819672,1.844262 v 1.844262 h -1.844262 -1.844262 l -8.2e-4,15.061476 c -8.2e-4,16.580869 -0.03754,16.84709 -2.590065,18.720869 -1.10519,0.811303 -1.720819,0.852254 -13.934426,0.926918 -7.027984,0.04297 -13.305141,-0.0847 -13.949238,-0.283709 z m 26.036356,-3.956287 c 0.699899,-0.633398 0.749484,-1.663742 0.749484,-15.57377 V 15.163934 H 25 11.47541 v 14.824287 c 0,13.219021 0.07345,14.905447 0.678274,15.573771 0.627916,0.69384 1.576379,0.749483 12.775106,0.749483 10.681097,0 12.184547,-0.07938 12.846316,-0.678274 z M 15.57377,30.737705 v -11.47541 h 1.844263 1.844262 v 11.47541 11.47541 H 17.418033 15.57377 Z m 7.786886,0 V 19.262295 H 25 26.639344 v 11.47541 11.47541 H 25 23.360656 Z m 7.377049,0 v -11.47541 h 1.844262 1.844263 v 11.47541 11.47541 h -1.844263 -1.844262 z m 0,-23.994039 c 0,-0.5737705 -0.452682,-1.4959017 -1.005961,-2.0491803 C 28.811227,3.7739692 28.409321,3.6885246 25,3.6885246 c -3.409321,0 -3.811227,0.085445 -4.731744,1.0059611 -0.553279,0.5532786 -1.005961,1.4754098 -1.005961,2.0491803 V 7.7868852 H 25 30.737705 Z"
       id="path1414"
       inkscape:connector-curvature="0" />
    <path
       style="fill:#fe6900;stroke-width:0.40983605"
       d="M 12.30045,49.71116 C 11.739877,49.599262 10.750774,49.129992 10.102442,48.66834 7.8626324,47.073455 7.7868852,46.467221 7.7868852,30.136114 V 15.163934 H 5.942623 4.0983607 v -1.610839 c 0,-1.358473 0.1444684,-1.631358 0.9221311,-1.741804 C 5.7432029,11.70865 5.9720221,11.370475 6.0785676,10.247547 6.2971201,7.9441254 6.628693,7.7868852 11.267374,7.7868852 H 15.46717 L 15.670826,5.9800566 C 16.140809,1.810381 18.945449,0.01800164 25,0.01800164 c 6.054551,0 8.859191,1.79237936 9.329174,5.96205496 l 0.203656,1.8068286 h 4.199796 c 4.638681,0 4.970255,0.1572402 5.188808,2.4606618 0.106546,1.122928 0.335361,1.461103 1.058074,1.563744 0.777664,0.110446 0.922131,0.383331 0.922131,1.741804 v 1.610839 h -1.844262 -1.844262 v 14.97218 c 0,16.538644 -0.05117,16.918583 -2.515107,18.675911 -1.377409,0.982397 -1.386743,0.983098 -13.878336,1.042819 -6.875,0.03287 -12.95865,-0.0318 -13.519222,-0.143684 z m 25.732337,-3.891488 c 0.364695,-0.364697 0.491803,-4.389799 0.491803,-15.57377 V 15.163934 H 25 11.47541 v 15.081968 c 0,11.183971 0.127108,15.209073 0.491803,15.57377 0.702998,0.703 25.362576,0.703 26.065574,0 z M 15.57377,30.829334 V 19.445552 l 1.639345,0.156337 1.639344,0.156337 V 30.98567 42.213115 H 17.213115 15.57377 Z m 7.786886,0.01083 V 19.467213 H 25 26.639344 V 30.840164 42.213115 H 25 23.360656 Z m 7.786885,0.145506 V 19.758226 l 1.639344,-0.156337 1.639345,-0.156337 V 30.829334 42.213115 H 32.786885 31.147541 Z M 30.737705,6.587123 c 0,-2.1170066 -1.547142,-2.8985984 -5.737705,-2.8985984 -4.190563,0 -5.737705,0.7815918 -5.737705,2.8985984 V 7.7868852 H 25 30.737705 Z"
       id="path1412"
       inkscape:connector-curvature="0" />
    <path
       style="fill:#fe5800;stroke-width:0.40983605"
       d="m 18.954918,46.414811 c 3.324795,-0.06889 8.765369,-0.06889 12.090164,0 3.324795,0.06889 0.604508,0.12525 -6.045082,0.12525 -6.64959,0 -9.369877,-0.05636 -6.045082,-0.12525 z M 7.9721258,30.327869 c 0,-8.227459 0.054694,-11.593238 0.1215431,-7.479508 0.066849,4.113729 0.066849,10.845287 0,14.959016 -0.066849,4.11373 -0.1215431,0.747951 -0.1215431,-7.479508 z m 34.0163942,0 c 0,-8.227459 0.05469,-11.593238 0.121541,-7.479508 0.06685,4.113729 0.06685,10.845287 0,14.959016 -0.06685,4.11373 -0.121541,0.747951 -0.121541,-7.479508 z M 16.290984,41.923881 c 0.507172,-0.09769 1.33709,-0.09769 1.844262,0 0.507172,0.09768 0.09221,0.177611 -0.922131,0.177611 -1.014345,0 -1.429304,-0.07993 -0.922131,-0.177611 z m 7.786885,0 c 0.507172,-0.09769 1.33709,-0.09769 1.844262,0 0.507172,0.09768 0.09221,0.177611 -0.922131,0.177611 -1.014344,0 -1.429303,-0.07993 -0.922131,-0.177611 z m 7.786885,0 c 0.507172,-0.09769 1.33709,-0.09769 1.844262,0 0.507173,0.09768 0.09221,0.177611 -0.922131,0.177611 -1.014344,0 -1.429303,-0.07993 -0.922131,-0.177611 z M 8.9139344,7.894573 c 1.1834016,-0.082788 3.1198766,-0.082788 4.3032786,0 1.183402,0.082788 0.215164,0.1505233 -2.151639,0.1505233 -2.3668035,0 -3.3350412,-0.067735 -2.1516396,-0.1505233 z M 22.028689,7.892403 c 1.634221,-0.077791 4.308401,-0.077791 5.942622,0 C 29.605533,7.970195 28.268443,8.0338428 25,8.0338428 c -3.268443,0 -4.605533,-0.063648 -2.971311,-0.1414398 z m 14.754098,0.00217 c 1.183402,-0.082788 3.119877,-0.082788 4.303279,0 1.183401,0.082788 0.215164,0.1505233 -2.15164,0.1505233 -2.366803,0 -3.335041,-0.067735 -2.151639,-0.1505233 z"
       id="path1410"
       inkscape:connector-curvature="0" />
  </g>
</svg>
