<?xml version="1.0" encoding="UTF-8" standalone="no"?>
<!-- Created with Inkscape (http://www.inkscape.org/) -->

<svg
   xmlns:dc="http://purl.org/dc/elements/1.1/"
   xmlns:cc="http://creativecommons.org/ns#"
   xmlns:rdf="http://www.w3.org/1999/02/22-rdf-syntax-ns#"
   xmlns:svg="http://www.w3.org/2000/svg"
   xmlns="http://www.w3.org/2000/svg"
   xmlns:xlink="http://www.w3.org/1999/xlink"
   xmlns:sodipodi="http://sodipodi.sourceforge.net/DTD/sodipodi-0.dtd"
   xmlns:inkscape="http://www.inkscape.org/namespaces/inkscape"
   width="39.6875mm"
   height="4.941596mm"
   viewBox="0 0 39.6875 4.941596"
   version="1.1"
   id="svg588"
   inkscape:version="0.92.2 (5c3e80d, 2017-08-06)"
   sodipodi:docname="activeBulletin.svg">
  <defs
     id="defs582">
    <radialGradient
       id="SVGID_1_"
       cx="111.127"
       cy="184.3418"
       r="57.153198"
       gradientUnits="userSpaceOnUse">
      <stop
         offset="0"
         style="stop-color:#00C1F3"
         id="stop160" />
      <stop
         offset="1"
         style="stop-color:#00B6F1"
         id="stop162" />
    </radialGradient>
    <radialGradient
       id="SVGID_2_"
       cx="111.127"
       cy="233.4395"
       r="57.153198"
       gradientUnits="userSpaceOnUse">
      <stop
         offset="0"
         style="stop-color:#00C1F3"
         id="stop183" />
      <stop
         offset="1"
         style="stop-color:#00B6F1"
         id="stop185" />
    </radialGradient>
    <radialGradient
       id="SVGID_3_"
       cx="111.127"
       cy="285.5947"
       r="57.153099"
       gradientUnits="userSpaceOnUse">
      <stop
         offset="0"
         style="stop-color:#00C1F3"
         id="stop210" />
      <stop
         offset="1"
         style="stop-color:#00B6F1"
         id="stop212" />
    </radialGradient>
    <radialGradient
       id="SVGID_11_"
       cx="111.127"
       cy="335.78119"
       r="57.153198"
       gradientUnits="userSpaceOnUse">
      <stop
         offset="0"
         style="stop-color:#00C1F3"
         id="stop510" />
      <stop
         offset="1"
         style="stop-color:#00B6F1"
         id="stop512" />
    </radialGradient>
    <clipPath
       id="SVGID_12_">
      <use
         height="100%"
         width="100%"
         y="0"
         x="0"
         style="overflow:visible"
         xlink:href="#SVGID_42_"
         overflow="visible"
         id="use530" />
    </clipPath>
    <circle
       id="SVGID_42_"
       cx="181.686"
       cy="335.772"
       r="8.1169996" />
    <clipPath
       id="SVGID_5_">
      <use
         height="100%"
         width="100%"
         y="0"
         x="0"
         style="overflow:visible"
         xlink:href="#SVGID_88_"
         overflow="visible"
         id="use273" />
    </clipPath>
    <circle
       id="SVGID_88_"
       cx="181.687"
       cy="335.77301"
       r="8.1169996" />
  </defs>
  <sodipodi:namedview
     id="base"
     pagecolor="#ffffff"
     bordercolor="#666666"
     borderopacity="1.0"
     inkscape:pageopacity="0.0"
     inkscape:pageshadow="2"
     inkscape:zoom="9.8866667"
     inkscape:cx="124.14314"
     inkscape:cy="9.3384492"
     inkscape:document-units="mm"
     inkscape:current-layer="layer1"
     showgrid="false"
     fit-margin-top="0"
     fit-margin-left="0"
     fit-margin-right="0"
     fit-margin-bottom="0"
     inkscape:window-width="1476"
     inkscape:window-height="991"
     inkscape:window-x="178"
     inkscape:window-y="0"
     inkscape:window-maximized="0" />
  <metadata
     id="metadata585">
    <rdf:RDF>
      <cc:Work
         rdf:about="">
        <dc:format>image/svg+xml</dc:format>
        <dc:type
           rdf:resource="http://purl.org/dc/dcmitype/StillImage" />
        <dc:title />
      </cc:Work>
    </rdf:RDF>
  </metadata>
  <g
     inkscape:label="Layer 1"
     inkscape:groupmode="layer"
     id="layer1"
     transform="translate(-148.05689,-119.15784)">
    <path
       id="path256"
       d="m 187.66468,121.6311 c 0,1.31585 -1.06709,2.38245 -2.38294,2.38245 h -34.8424 c -1.31585,0 -2.38245,-1.0666 -2.38245,-2.38245 v 0 c 0,-1.31635 1.0666,-2.38294 2.38245,-2.38294 h 34.8424 c 1.31585,0 2.38294,1.06659 2.38294,2.38294 z"
       inkscape:connector-curvature="0"
       style="clip-rule:evenodd;fill:#b5699e;fill-rule:evenodd;stroke-width:0.24678366" />
    <path
       id="path258"
       d="m 187.37249,121.6311 c 0,1.13323 -0.91878,2.05126 -2.05176,2.05126 h -34.92038 c -1.13323,0 -2.05127,-0.91828 -2.05127,-2.05126 v 0 c 0,-1.13323 0.91828,-2.05176 2.05127,-2.05176 h 34.92038 c 1.13323,0 2.05176,0.91853 2.05176,2.05176 z"
       inkscape:connector-curvature="0"
       style="clip-rule:evenodd;fill:#e29fce;fill-rule:evenodd;stroke-width:0.24678366" />
    <path
       id="path260"
       d="m 148.71087,120.46801 c -0.22803,0.33069 -0.36204,0.73072 -0.36204,1.16309 0,1.13323 0.91829,2.05126 2.05127,2.05126 h 34.92038 c 1.13323,0 2.05176,-0.91828 2.05176,-2.05126 0,-0.43237 -0.1345,-0.8324 -0.36252,-1.16309 -3.26322,1.01601 -10.60923,1.72452 -19.14943,1.72452 -8.53995,2.5e-4 -15.88571,-0.70827 -19.14942,-1.72452 z"
       inkscape:connector-curvature="0"
       style="fill:#d383b6;stroke-width:0.24678366" />
    <path
       id="path262"
       d="m 185.32073,119.57934 h -34.92038 c -0.70087,0 -1.31931,0.35191 -1.68948,0.88891 3.26371,1.01601 10.60923,1.72453 19.14991,1.72453 8.53995,0 15.88621,-0.70852 19.14943,-1.72453 -0.36968,-0.537 -0.98812,-0.88891 -1.68948,-0.88891 z"
       inkscape:connector-curvature="0"
       style="opacity:0.4;fill:#ffffff;stroke-width:0.24678366" />
    <circle
       id="circle266"
       r="2.470798"
       cy="121.62863"
       cx="185.27359"
       style="fill:#b5699e;stroke-width:0.24678366" />
    <text
       id="text523"
       font-size="6.898"
       style="font-style:normal;font-variant:normal;font-weight:normal;font-stretch:normal;font-size:2.46944451px;font-family:sans-serif;-inkscape-font-specification:'sans-serif, Normal';font-variant-ligatures:normal;font-variant-caps:normal;font-variant-numeric:normal;font-feature-settings:normal;text-align:start;writing-mode:lr-tb;text-anchor:start;stroke-width:0.24678518"
       x="154.64853"
       y="122.49547">HEALTH BULLETIN</text>
    <g
       id="g114"
       transform="matrix(0.26458333,0,0,0.26458333,137.42465,44.411566)">
      <g
         id="g110">
        <polygon
           points="184.366,292.482 185.366,292.482 185.366,297.694 175.628,297.694 175.628,286.53 179.27,286.53 179.27,287.53 176.628,287.53 176.628,296.694 184.366,296.694 "
           id="polygon108"
           style="fill:#ffffff" />
      </g>
      <path
         d="m 183.387,289.146 c -0.342,-1.031 -0.68,-2.041 -1.023,-3.071 -0.029,0.069 -0.053,0.122 -0.076,0.173 -0.273,0.639 -0.547,1.278 -0.82,1.918 -0.02,0.05 -0.047,0.065 -0.1,0.065 -0.303,-0.003 -0.607,0 -0.912,-0.004 -0.025,0 -0.064,-0.02 -0.072,-0.041 -0.186,-0.444 -0.289,-0.908 -0.238,-1.395 0.086,-0.833 0.709,-1.529 1.531,-1.698 0.701,-0.144 1.305,0.048 1.816,0.542 0.02,0.019 0.035,0.044 0.057,0.07 0.029,-0.025 0.047,-0.041 0.064,-0.059 0.461,-0.457 1.014,-0.666 1.662,-0.583 0.826,0.105 1.533,0.733 1.68,1.591 0.092,0.538 -0.014,1.051 -0.221,1.544 -0.242,0.585 -0.609,1.09 -1.025,1.56 -0.426,0.48 -0.867,0.948 -1.299,1.423 -0.121,0.131 -0.232,0.271 -0.352,0.405 -0.068,0.078 -0.139,0.157 -0.221,0.221 -0.166,0.133 -0.389,0.131 -0.561,10e-4 -0.055,-0.042 -0.107,-0.093 -0.154,-0.147 -0.457,-0.503 -0.914,-1.009 -1.371,-1.513 -0.373,-0.412 -0.734,-0.834 -1.031,-1.307 -0.023,-0.038 -0.043,-0.073 -0.072,-0.123 0.035,0 0.059,0 0.084,0 0.316,0 0.637,-0.001 0.955,0.003 0.059,0 0.084,-0.021 0.105,-0.072 0.156,-0.37 0.316,-0.738 0.475,-1.108 0.01,-0.023 0.021,-0.046 0.041,-0.087 0.312,0.938 0.621,1.861 0.932,2.793 0.021,-0.029 0.037,-0.051 0.051,-0.07 0.201,-0.305 0.406,-0.611 0.609,-0.916 0.049,-0.072 0.193,-0.076 0.246,-0.007 0.182,0.237 0.51,0.268 0.727,0.068 0.207,-0.192 0.207,-0.523 0,-0.717 -0.217,-0.201 -0.543,-0.169 -0.729,0.068 -0.02,0.023 -0.055,0.042 -0.086,0.044 -0.109,0.005 -0.219,0.004 -0.328,0 -0.045,0 -0.068,0.016 -0.092,0.051 -0.078,0.122 -0.16,0.242 -0.252,0.378 z"
         id="path112"
         inkscape:connector-curvature="0"
         style="clip-rule:evenodd;fill:#ffffff;fill-rule:evenodd" />
    </g>
  </g>
</svg>
