<?xml version="1.0" encoding="UTF-8" standalone="no"?>
<!-- Created with Inkscape (http://www.inkscape.org/) -->

<svg
   xmlns:dc="http://purl.org/dc/elements/1.1/"
   xmlns:cc="http://creativecommons.org/ns#"
   xmlns:rdf="http://www.w3.org/1999/02/22-rdf-syntax-ns#"
   xmlns:svg="http://www.w3.org/2000/svg"
   xmlns="http://www.w3.org/2000/svg"
   xmlns:xlink="http://www.w3.org/1999/xlink"
   xmlns:sodipodi="http://sodipodi.sourceforge.net/DTD/sodipodi-0.dtd"
   xmlns:inkscape="http://www.inkscape.org/namespaces/inkscape"
   width="39.6875mm"
   height="4.9411325mm"
   viewBox="0 0 39.6875 4.9411325"
   version="1.1"
   id="svg588"
   inkscape:version="0.92.2 (5c3e80d, 2017-08-06)"
   sodipodi:docname="bulletinWithNotification.svg">
  <defs
     id="defs582">
    <radialGradient
       id="SVGID_1_"
       cx="111.127"
       cy="184.3418"
       r="57.153198"
       gradientUnits="userSpaceOnUse">
      <stop
         offset="0"
         style="stop-color:#00C1F3"
         id="stop160" />
      <stop
         offset="1"
         style="stop-color:#00B6F1"
         id="stop162" />
    </radialGradient>
    <radialGradient
       id="SVGID_2_"
       cx="111.127"
       cy="233.4395"
       r="57.153198"
       gradientUnits="userSpaceOnUse">
      <stop
         offset="0"
         style="stop-color:#00C1F3"
         id="stop183" />
      <stop
         offset="1"
         style="stop-color:#00B6F1"
         id="stop185" />
    </radialGradient>
    <radialGradient
       id="SVGID_3_"
       cx="111.127"
       cy="285.5947"
       r="57.153099"
       gradientUnits="userSpaceOnUse">
      <stop
         offset="0"
         style="stop-color:#00C1F3"
         id="stop210" />
      <stop
         offset="1"
         style="stop-color:#00B6F1"
         id="stop212" />
    </radialGradient>
    <radialGradient
       id="SVGID_11_"
       cx="111.127"
       cy="335.78119"
       r="57.153198"
       gradientUnits="userSpaceOnUse"
       gradientTransform="matrix(0.24678518,0,0,0.24678518,-28.464053,93.181975)">
      <stop
         offset="0"
         style="stop-color:#00C1F3"
         id="stop510" />
      <stop
         offset="1"
         style="stop-color:#00B6F1"
         id="stop512" />
    </radialGradient>
    <clipPath
       id="SVGID_12_">
      <use
         height="100%"
         width="100%"
         y="0"
         x="0"
         style="overflow:visible"
         xlink:href="#SVGID_42_"
         overflow="visible"
         id="use530" />
    </clipPath>
    <circle
       id="SVGID_42_"
       cx="181.686"
       cy="335.772"
       r="8.1169996" />
    <radialGradient
       gradientUnits="userSpaceOnUse"
       r="57.153198"
       cy="335.78119"
       cx="111.127"
       id="radialGradient801">
      <stop
         id="stop797"
         style="stop-color:#00C1F3"
         offset="0" />
      <stop
         id="stop799"
         style="stop-color:#00B6F1"
         offset="1" />
    </radialGradient>
  </defs>
  <sodipodi:namedview
     id="base"
     pagecolor="#ffffff"
     bordercolor="#666666"
     borderopacity="1.0"
     inkscape:pageopacity="0.0"
     inkscape:pageshadow="2"
     inkscape:zoom="9.8866667"
     inkscape:cx="122.83057"
     inkscape:cy="12.369038"
     inkscape:document-units="mm"
     inkscape:current-layer="layer1"
     showgrid="false"
     fit-margin-top="0"
     fit-margin-left="0"
     fit-margin-right="0"
     fit-margin-bottom="0"
     inkscape:window-width="1025"
     inkscape:window-height="489"
     inkscape:window-x="160"
     inkscape:window-y="160"
     inkscape:window-maximized="0" />
  <metadata
     id="metadata585">
    <rdf:RDF>
      <cc:Work
         rdf:about="">
        <dc:format>image/svg+xml</dc:format>
        <dc:type
           rdf:resource="http://purl.org/dc/dcmitype/StillImage" />
        <dc:title></dc:title>
      </cc:Work>
    </rdf:RDF>
  </metadata>
  <g
     inkscape:label="Layer 1"
     inkscape:groupmode="layer"
     id="layer1"
     transform="translate(20.843573,-173.57496)">
    <path
       id="path515"
       d="m 18.764461,176.048 c 0,1.31585 -1.066853,2.38246 -2.382711,2.38246 h -34.842613 c -1.315858,0 -2.38271,-1.06661 -2.38271,-2.38246 v 0 c 0,-1.31636 1.066852,-2.38296 2.38271,-2.38296 H 16.38175 c 1.315858,0 2.382711,1.0666 2.382711,2.38296 z"
       inkscape:connector-curvature="0"
       style="clip-rule:evenodd;fill:url(#SVGID_11_);fill-rule:evenodd;stroke-width:0.24678518" />
    <path
       id="path517"
       d="m 18.472267,176.048 c 0,1.13323 -0.918534,2.05127 -2.051525,2.05127 h -34.920843 c -1.132991,0 -2.051279,-0.91828 -2.051279,-2.05127 v 0 c 0,-1.13324 0.918535,-2.05178 2.051279,-2.05178 h 34.920843 c 1.133238,0 2.051525,0.91854 2.051525,2.05178 z"
       inkscape:connector-curvature="0"
       style="clip-rule:evenodd;fill:#80cde9;fill-rule:evenodd;stroke-width:0.24678518" />
    <path
       id="path519"
       d="m -20.189593,174.8849 c -0.227782,0.33069 -0.362034,0.73073 -0.362034,1.1631 0,1.13323 0.918535,2.05127 2.051279,2.05127 h 34.920843 c 1.133238,0 2.051525,-0.91828 2.051525,-2.05127 0,-0.43237 -0.134498,-0.83241 -0.36228,-1.1631 -3.263241,1.01601 -10.6092951,1.72453 -19.1495431,1.72453 -8.5402479,0 -15.8860559,-0.70827 -19.1497899,-1.72453 z"
       inkscape:connector-curvature="0"
       style="fill:#80cde9;stroke-width:0.24678518" />
    <path
       id="path521"
       d="m 16.420742,173.99622 h -34.920843 c -0.70087,0 -1.319314,0.35192 -1.689492,0.88892 3.263734,1.01602 10.609542,1.72454 19.1500367,1.72454 8.5404947,0 15.8863023,-0.70852 19.1495433,-1.72454 -0.369685,-0.537 -0.987882,-0.88892 -1.689245,-0.88892 z"
       inkscape:connector-curvature="0"
       style="opacity:0.4;fill:#ffffff;stroke-width:0.24678518" />
    <text
       id="text523"
       font-size="6.898"
       style="font-style:normal;font-variant:normal;font-weight:normal;font-stretch:normal;font-size:2.46944451px;font-family:sans-serif;-inkscape-font-specification:'sans-serif, Normal';font-variant-ligatures:normal;font-variant-caps:normal;font-variant-numeric:normal;font-feature-settings:normal;text-align:start;writing-mode:lr-tb;text-anchor:start;stroke-width:0.24678518"
       x="-14.252318"
       y="176.91167">HEALTH BULLETIN</text>
    <circle
       id="circle525"
       r="2.4705663"
       cy="176.04553"
       cx="16.37336"
       style="fill:#1b75bb;stroke-width:0.24678518" />
    <g
       id="g114"
       transform="matrix(0.26458333,0,0,0.26458333,-31.476291,98.828678)">
      <g
         id="g110">
        <polygon
           points="184.366,292.482 185.366,292.482 185.366,297.694 175.628,297.694 175.628,286.53 179.27,286.53 179.27,287.53 176.628,287.53 176.628,296.694 184.366,296.694 "
           id="polygon108"
           style="fill:#ffffff" />
      </g>
      <path
         d="m 183.387,289.146 c -0.342,-1.031 -0.68,-2.041 -1.023,-3.071 -0.029,0.069 -0.053,0.122 -0.076,0.173 -0.273,0.639 -0.547,1.278 -0.82,1.918 -0.02,0.05 -0.047,0.065 -0.1,0.065 -0.303,-0.003 -0.607,0 -0.912,-0.004 -0.025,0 -0.064,-0.02 -0.072,-0.041 -0.186,-0.444 -0.289,-0.908 -0.238,-1.395 0.086,-0.833 0.709,-1.529 1.531,-1.698 0.701,-0.144 1.305,0.048 1.816,0.542 0.02,0.019 0.035,0.044 0.057,0.07 0.029,-0.025 0.047,-0.041 0.064,-0.059 0.461,-0.457 1.014,-0.666 1.662,-0.583 0.826,0.105 1.533,0.733 1.68,1.591 0.092,0.538 -0.014,1.051 -0.221,1.544 -0.242,0.585 -0.609,1.09 -1.025,1.56 -0.426,0.48 -0.867,0.948 -1.299,1.423 -0.121,0.131 -0.232,0.271 -0.352,0.405 -0.068,0.078 -0.139,0.157 -0.221,0.221 -0.166,0.133 -0.389,0.131 -0.561,10e-4 -0.055,-0.042 -0.107,-0.093 -0.154,-0.147 -0.457,-0.503 -0.914,-1.009 -1.371,-1.513 -0.373,-0.412 -0.734,-0.834 -1.031,-1.307 -0.023,-0.038 -0.043,-0.073 -0.072,-0.123 0.035,0 0.059,0 0.084,0 0.316,0 0.637,-0.001 0.955,0.003 0.059,0 0.084,-0.021 0.105,-0.072 0.156,-0.37 0.316,-0.738 0.475,-1.108 0.01,-0.023 0.021,-0.046 0.041,-0.087 0.312,0.938 0.621,1.861 0.932,2.793 0.021,-0.029 0.037,-0.051 0.051,-0.07 0.201,-0.305 0.406,-0.611 0.609,-0.916 0.049,-0.072 0.193,-0.076 0.246,-0.007 0.182,0.237 0.51,0.268 0.727,0.068 0.207,-0.192 0.207,-0.523 0,-0.717 -0.217,-0.201 -0.543,-0.169 -0.729,0.068 -0.02,0.023 -0.055,0.042 -0.086,0.044 -0.109,0.005 -0.219,0.004 -0.328,0 -0.045,0 -0.068,0.016 -0.092,0.051 -0.078,0.122 -0.16,0.242 -0.252,0.378 z"
         id="path112"
         inkscape:connector-curvature="0"
         style="clip-rule:evenodd;fill:#ffffff;fill-rule:evenodd" />
    </g>
    <g
       transform="matrix(0.26458333,0,0,0.26458333,-33.461737,86.572532)"
       id="g130">
      <path
         style="clip-rule:evenodd;fill:#ed2224;fill-rule:evenodd"
         inkscape:connector-curvature="0"
         d="m 196.301,329.629 c -0.242,0.409 -0.472,0.797 -0.701,1.184 -0.596,1.005 -1.19,2.011 -1.79,3.014 -0.048,0.078 -0.026,0.129 0.012,0.192 0.805,1.356 1.61,2.713 2.415,4.07 0.017,0.028 0.032,0.058 0.049,0.087 -0.038,0.031 -0.076,0.017 -0.111,0.017 -3.815,0.002 -7.632,0.002 -11.447,0.008 -0.13,0 -0.157,-0.034 -0.157,-0.16 0.004,-2.756 0.004,-5.513 0,-8.269 0,-0.114 0.027,-0.146 0.145,-0.146 3.335,0.003 6.669,0.003 10.003,0.003 0.517,0 1.036,0 1.582,0 z"
         id="path126" />
      <path
         style="clip-rule:evenodd;fill:#231f20;fill-rule:evenodd"
         inkscape:connector-curvature="0"
         d="m 197.919,339.106 c -0.011,-0.049 -0.039,-0.082 -0.061,-0.118 -0.98,-1.656 -1.963,-3.312 -2.947,-4.966 -0.046,-0.079 -0.049,-0.134 -0.001,-0.214 0.993,-1.669 1.983,-3.339 2.973,-5.01 0.018,-0.031 0.064,-0.057 0.039,-0.106 -4.724,0 -9.447,10e-4 -14.171,-0.002 -0.096,0 -0.117,0.021 -0.117,0.116 0.002,3.434 0.002,6.866 0.002,10.3 z m -13.35,-9.335 c 0,-0.114 0.027,-0.146 0.145,-0.146 3.335,0.003 6.669,0.003 10.003,0.003 0.52,0 1.038,0 1.584,0 -0.242,0.409 -0.472,0.797 -0.701,1.184 -0.596,1.005 -1.19,2.011 -1.79,3.014 -0.048,0.078 -0.026,0.129 0.012,0.192 0.805,1.356 1.61,2.713 2.415,4.07 0.017,0.028 0.032,0.058 0.049,0.087 -0.038,0.031 -0.076,0.017 -0.111,0.017 -3.815,0.002 -7.632,0.002 -11.447,0.008 -0.13,0 -0.157,-0.034 -0.157,-0.16 0.002,-2.756 0.002,-5.513 -0.002,-8.269 z"
         id="path128" />
    </g>
  </g>
</svg>
