<?xml version="1.0" encoding="UTF-8" standalone="no"?>
<!-- Created with Inkscape (http://www.inkscape.org/) -->

<svg
   xmlns:dc="http://purl.org/dc/elements/1.1/"
   xmlns:cc="http://creativecommons.org/ns#"
   xmlns:rdf="http://www.w3.org/1999/02/22-rdf-syntax-ns#"
   xmlns:svg="http://www.w3.org/2000/svg"
   xmlns="http://www.w3.org/2000/svg"
   xmlns:sodipodi="http://sodipodi.sourceforge.net/DTD/sodipodi-0.dtd"
   xmlns:inkscape="http://www.inkscape.org/namespaces/inkscape"
   width="39.6875mm"
   height="4.9411325mm"
   viewBox="0 0 39.6875 4.9411325"
   version="1.1"
   id="svg588"
   inkscape:version="0.92.2 (5c3e80d, 2017-08-06)"
   sodipodi:docname="healthactivities.svg">
  <defs
     id="defs582">
    <radialGradient
       id="SVGID_1_"
       cx="111.127"
       cy="184.3418"
       r="57.153198"
       gradientUnits="userSpaceOnUse">
      <stop
         offset="0"
         style="stop-color:#00C1F3"
         id="stop160" />
      <stop
         offset="1"
         style="stop-color:#00B6F1"
         id="stop162" />
    </radialGradient>
    <radialGradient
       id="SVGID_2_"
       cx="111.127"
       cy="233.4395"
       r="57.153198"
       gradientUnits="userSpaceOnUse"
       gradientTransform="matrix(0.24678518,0,0,0.24678518,-26.546731,88.95026)">
      <stop
         offset="0"
         style="stop-color:#00C1F3"
         id="stop183" />
      <stop
         offset="1"
         style="stop-color:#00B6F1"
         id="stop185" />
    </radialGradient>
    <radialGradient
       gradientUnits="userSpaceOnUse"
       r="57.153198"
       cy="233.4395"
       cx="111.127"
       id="radialGradient639">
      <stop
         id="stop635"
         style="stop-color:#00C1F3"
         offset="0" />
      <stop
         id="stop637"
         style="stop-color:#00B6F1"
         offset="1" />
    </radialGradient>
  </defs>
  <sodipodi:namedview
     id="base"
     pagecolor="#ffffff"
     bordercolor="#666666"
     borderopacity="1.0"
     inkscape:pageopacity="0.0"
     inkscape:pageshadow="2"
     inkscape:zoom="3.4333333"
     inkscape:cx="75"
     inkscape:cy="9.3375733"
     inkscape:document-units="mm"
     inkscape:current-layer="layer1"
     showgrid="false"
     fit-margin-top="0"
     fit-margin-left="0"
     fit-margin-right="0"
     fit-margin-bottom="0"
     inkscape:window-width="952"
     inkscape:window-height="739"
     inkscape:window-x="64"
     inkscape:window-y="64"
     inkscape:window-maximized="0" />
  <metadata
     id="metadata585">
    <rdf:RDF>
      <cc:Work
         rdf:about="">
        <dc:format>image/svg+xml</dc:format>
        <dc:type
           rdf:resource="http://purl.org/dc/dcmitype/StillImage" />
        <dc:title />
      </cc:Work>
    </rdf:RDF>
  </metadata>
  <g
     inkscape:label="Layer 1"
     inkscape:groupmode="layer"
     id="layer1"
     transform="translate(18.926251,-144.087)">
    <path
       id="path188"
       d="m 20.681783,146.55979 c 0,1.31586 -1.066853,2.38247 -2.382711,2.38247 h -34.842613 c -1.315858,0 -2.38271,-1.06661 -2.38271,-2.38247 v 0 c 0,-1.31635 1.066852,-2.38296 2.38271,-2.38296 h 34.842613 c 1.315858,0 2.382711,1.06661 2.382711,2.38296 z"
       inkscape:connector-curvature="0"
       style="clip-rule:evenodd;fill:url(#SVGID_2_);fill-rule:evenodd;stroke-width:0.24678518" />
    <path
       id="path190"
       d="m 20.389589,146.55979 c 0,1.13324 -0.918534,2.05128 -2.051525,2.05128 h -34.920843 c -1.132991,0 -2.051279,-0.91829 -2.051279,-2.05128 v 0 c 0,-1.13324 0.918535,-2.05177 2.051279,-2.05177 h 34.920843 c 1.133238,0 2.051525,0.91878 2.051525,2.05177 z"
       inkscape:connector-curvature="0"
       style="clip-rule:evenodd;fill:#80cde9;fill-rule:evenodd;stroke-width:0.24678518" />
    <path
       id="path192"
       d="m -18.272271,145.39694 c -0.227782,0.33069 -0.362034,0.73073 -0.362034,1.1631 0,1.13324 0.918535,2.05128 2.051279,2.05128 h 34.920843 c 1.133238,0 2.051525,-0.91829 2.051525,-2.05128 0,-0.43237 -0.134498,-0.83241 -0.36228,-1.1631 -3.263241,1.01602 -10.6092951,1.72454 -19.14954309,1.72454 -8.54024791,0 -15.88605591,-0.70852 -19.14978991,-1.72454 z"
       inkscape:connector-curvature="0"
       style="fill:#80cde9;stroke-width:0.24678518" />
    <path
       id="path194"
       d="m 18.338064,144.50802 h -34.920843 c -0.70087,0 -1.319314,0.35192 -1.689492,0.88892 3.263734,1.01602 10.609542,1.72454 19.1500367,1.72454 8.5404947,0 15.8863023,-0.70852 19.1495433,-1.72454 -0.369685,-0.537 -0.987882,-0.88892 -1.689245,-0.88892 z"
       inkscape:connector-curvature="0"
       style="opacity:0.4;fill:#ffffff;stroke-width:0.24678518" />
    <text
       id="text196"
       font-size="6.898"
       style="font-style:normal;font-variant:normal;font-weight:normal;font-stretch:normal;font-size:2.46944451px;font-family:sans-serif;-inkscape-font-specification:'sans-serif, Normal';font-variant-ligatures:normal;font-variant-caps:normal;font-variant-numeric:normal;font-feature-settings:normal;text-align:start;writing-mode:lr-tb;text-anchor:start;stroke-width:0.24678518"
       x="-14.80957"
       y="147.64479">MY HEALTH ACTIVITIES</text>
    <g
       id="g206"
       transform="matrix(0.24678518,0,0,0.24678518,-26.546731,88.95026)">
      <circle
         id="circle198"
         r="10.011"
         cy="233.431"
         cx="181.686"
         style="fill:#1b75bb" />
      <g
         id="g204">
        <path
           id="path200"
           d="m 187.015,230.278 c -0.725,1.275 -2.254,2.344 -4.035,1.877 -0.09,-0.023 -0.265,0.053 -0.312,0.133 -0.444,0.771 -0.869,1.553 -1.298,2.328 0.536,0.375 1.06,0.695 1.525,1.086 0.328,0.275 0.634,0.615 0.847,0.984 0.364,0.633 0.657,1.309 0.964,1.973 0.189,0.41 0.064,0.764 -0.301,0.947 -0.409,0.205 -0.787,0.086 -1.001,-0.342 -0.249,-0.5 -0.49,-1.004 -0.713,-1.516 -0.232,-0.533 -0.593,-0.943 -1.096,-1.229 -0.485,-0.277 -0.975,-0.545 -1.458,-0.826 -0.221,-0.129 -0.358,-0.078 -0.536,0.109 -1.103,1.17 -2.844,1.48 -4.254,0.783 -0.556,-0.277 -0.729,-0.639 -0.511,-1.074 0.217,-0.434 0.637,-0.549 1.158,-0.285 0.72,0.365 1.4,0.277 2.024,-0.188 0.294,-0.219 0.595,-0.482 0.773,-0.795 0.6,-1.047 1.146,-2.127 1.714,-3.197 -0.886,-0.328 -1.665,-0.062 -2.357,0.809 -0.239,0.299 -0.506,0.463 -0.895,0.354 -0.521,-0.146 -0.688,-0.604 -0.387,-1.051 1.093,-1.621 2.951,-2.125 4.706,-1.266 0.395,0.191 0.767,0.43 1.158,0.627 1.105,0.559 2.033,0.352 2.799,-0.609 0.498,-0.625 1.069,-0.576 1.483,0.127 0.003,0.081 0.003,0.161 0.003,0.241 z"
           inkscape:connector-curvature="0"
           style="clip-rule:evenodd;fill:#ffffff;fill-rule:evenodd" />
        <path
           id="path202"
           d="m 183.225,230.204 c -0.797,-0.004 -1.428,-0.652 -1.418,-1.459 0.01,-0.775 0.656,-1.418 1.429,-1.422 0.774,-0.006 1.455,0.676 1.451,1.451 -0.002,0.791 -0.66,1.434 -1.462,1.43 z"
           inkscape:connector-curvature="0"
           style="clip-rule:evenodd;fill:#ffffff;fill-rule:evenodd" />
      </g>
    </g>
  </g>
</svg>
